EESchema Schematic File Version 4
EELAYER 30 0
EELAYER END
$Descr A4 11693 8268
encoding utf-8
Sheet 1 1
Title ""
Date ""
Rev ""
Comp ""
Comment1 ""
Comment2 ""
Comment3 ""
Comment4 ""
$EndDescr
$Comp
L Device:C C2
U 1 1 6002E98D
P 1450 5050
F 0 "C2" H 1500 5150 50  0000 L CNN
F 1 "100n" H 1500 4950 50  0000 L CNN
F 2 "Capacitor_SMD:C_0603_1608Metric" H 1488 4900 50  0001 C CNN
F 3 "~" H 1450 5050 50  0001 C CNN
F 4 "C14663" H 1450 5050 50  0001 C CNN "LCSC"
	1    1450 5050
	1    0    0    -1  
$EndComp
$Comp
L Device:C C4
U 1 1 6002ECCB
P 1750 5050
F 0 "C4" H 1800 5150 50  0000 L CNN
F 1 "100n" H 1800 4950 50  0000 L CNN
F 2 "Capacitor_SMD:C_0603_1608Metric" H 1788 4900 50  0001 C CNN
F 3 "~" H 1750 5050 50  0001 C CNN
F 4 "C14663" H 1750 5050 50  0001 C CNN "LCSC"
	1    1750 5050
	1    0    0    -1  
$EndComp
$Comp
L Device:C C6
U 1 1 6002EF9A
P 2050 5050
F 0 "C6" H 2100 5150 50  0000 L CNN
F 1 "100n" H 2100 4950 50  0000 L CNN
F 2 "Capacitor_SMD:C_0603_1608Metric" H 2088 4900 50  0001 C CNN
F 3 "~" H 2050 5050 50  0001 C CNN
F 4 "C14663" H 2050 5050 50  0001 C CNN "LCSC"
	1    2050 5050
	1    0    0    -1  
$EndComp
$Comp
L Device:C C7
U 1 1 6002F153
P 2350 5050
F 0 "C7" H 2400 5150 50  0000 L CNN
F 1 "100n" H 2400 4950 50  0000 L CNN
F 2 "Capacitor_SMD:C_0603_1608Metric" H 2388 4900 50  0001 C CNN
F 3 "~" H 2350 5050 50  0001 C CNN
F 4 "C14663" H 2350 5050 50  0001 C CNN "LCSC"
	1    2350 5050
	1    0    0    -1  
$EndComp
$Comp
L power:+3.3V #PWR0101
U 1 1 6002F843
P 1900 4750
F 0 "#PWR0101" H 1900 4600 50  0001 C CNN
F 1 "+3.3V" H 1915 4923 50  0000 C CNN
F 2 "" H 1900 4750 50  0001 C CNN
F 3 "" H 1900 4750 50  0001 C CNN
	1    1900 4750
	1    0    0    -1  
$EndComp
$Comp
L power:GND #PWR0102
U 1 1 6002FD18
P 1900 5350
F 0 "#PWR0102" H 1900 5100 50  0001 C CNN
F 1 "GND" H 1905 5177 50  0000 C CNN
F 2 "" H 1900 5350 50  0001 C CNN
F 3 "" H 1900 5350 50  0001 C CNN
	1    1900 5350
	1    0    0    -1  
$EndComp
Wire Wire Line
	1450 5200 1450 5300
Wire Wire Line
	1450 5300 1750 5300
Wire Wire Line
	2350 5300 2350 5200
Wire Wire Line
	1900 5350 1900 5300
Connection ~ 1900 5300
Wire Wire Line
	1900 5300 2050 5300
Wire Wire Line
	2050 5300 2050 5200
Connection ~ 2050 5300
Wire Wire Line
	2050 5300 2350 5300
Wire Wire Line
	1750 5200 1750 5300
Connection ~ 1750 5300
Wire Wire Line
	1750 5300 1900 5300
Wire Wire Line
	1450 4900 1450 4800
Wire Wire Line
	1450 4800 1750 4800
Wire Wire Line
	2350 4800 2350 4900
Wire Wire Line
	1750 4900 1750 4800
Connection ~ 1750 4800
Wire Wire Line
	1750 4800 1900 4800
Wire Wire Line
	2050 4900 2050 4800
Connection ~ 2050 4800
Wire Wire Line
	2050 4800 2350 4800
Wire Wire Line
	1900 4800 1900 4750
Connection ~ 1900 4800
Wire Wire Line
	1900 4800 2050 4800
$Comp
L power:+3.3V #PWR0103
U 1 1 60031444
P 6750 2200
F 0 "#PWR0103" H 6750 2050 50  0001 C CNN
F 1 "+3.3V" H 6765 2373 50  0000 C CNN
F 2 "" H 6750 2200 50  0001 C CNN
F 3 "" H 6750 2200 50  0001 C CNN
	1    6750 2200
	1    0    0    -1  
$EndComp
$Comp
L power:GND #PWR0104
U 1 1 600318BD
P 6700 5500
F 0 "#PWR0104" H 6700 5250 50  0001 C CNN
F 1 "GND" H 6705 5327 50  0000 C CNN
F 2 "" H 6700 5500 50  0001 C CNN
F 3 "" H 6700 5500 50  0001 C CNN
	1    6700 5500
	1    0    0    -1  
$EndComp
Wire Wire Line
	6550 5300 6550 5400
Wire Wire Line
	6550 5400 6650 5400
Wire Wire Line
	6850 5400 6850 5300
Wire Wire Line
	6700 5500 6700 5400
Connection ~ 6700 5400
Wire Wire Line
	6700 5400 6750 5400
Wire Wire Line
	6650 5400 6650 5300
Connection ~ 6650 5400
Wire Wire Line
	6650 5400 6700 5400
Wire Wire Line
	6750 5300 6750 5400
Connection ~ 6750 5400
Wire Wire Line
	6750 5400 6850 5400
Wire Wire Line
	6550 2300 6550 2250
Wire Wire Line
	6550 2250 6650 2250
Wire Wire Line
	6950 2250 6950 2300
Wire Wire Line
	6650 2300 6650 2250
Connection ~ 6650 2250
Wire Wire Line
	6650 2250 6750 2250
Wire Wire Line
	6750 2300 6750 2250
Connection ~ 6750 2250
Wire Wire Line
	6750 2250 6850 2250
Wire Wire Line
	6850 2300 6850 2250
Connection ~ 6850 2250
Wire Wire Line
	6850 2250 6950 2250
Wire Wire Line
	6750 2250 6750 2200
$Comp
L power:+3.3V #PWR0105
U 1 1 6007EF8F
P 5250 2500
F 0 "#PWR0105" H 5250 2350 50  0001 C CNN
F 1 "+3.3V" V 5250 2750 50  0000 C CNN
F 2 "" H 5250 2500 50  0001 C CNN
F 3 "" H 5250 2500 50  0001 C CNN
	1    5250 2500
	0    -1   -1   0   
$EndComp
Text Label 5950 2500 2    50   ~ 0
~RESET
Text Label 7450 4900 0    50   ~ 0
SWDIO
Wire Wire Line
	7450 4900 7350 4900
Text Label 7450 5000 0    50   ~ 0
SWCLK
Wire Wire Line
	7450 5000 7350 5000
Text Label 7450 4500 0    50   ~ 0
UART_TX
Text Label 7450 4600 0    50   ~ 0
UART_RX
Wire Wire Line
	7450 4600 7350 4600
Wire Wire Line
	7350 4500 7450 4500
$Comp
L Device:Crystal Y1
U 1 1 600833ED
P 1550 6700
F 0 "Y1" V 1504 6831 50  0000 L CNN
F 1 "8M" V 1595 6831 50  0000 L CNN
F 2 "Crystal:Crystal_SMD_5032-2Pin_5.0x3.2mm" H 1550 6700 50  0001 C CNN
F 3 "~" H 1550 6700 50  0001 C CNN
F 4 "C115962" H 1550 6700 50  0001 C CNN "LCSC"
	1    1550 6700
	0    1    1    0   
$EndComp
$Comp
L MCU_ST_STM32F1:STM32F103C8Tx U2
U 1 1 6002BE5F
P 6750 3800
F 0 "U2" H 7200 2250 50  0000 C CNN
F 1 "STM32F103C8Tx" H 7300 2100 50  0000 C CNN
F 2 "Package_QFP:LQFP-48_7x7mm_P0.5mm" H 6150 2400 50  0001 R CNN
F 3 "http://www.st.com/st-web-ui/static/active/en/resource/technical/document/datasheet/CD00161566.pdf" H 6750 3800 50  0001 C CNN
F 4 " 	C8734" H 6750 3800 50  0001 C CNN "LCSC"
	1    6750 3800
	1    0    0    -1  
$EndComp
Wire Wire Line
	1550 6500 1550 6550
Wire Wire Line
	1550 6850 1550 6900
$Comp
L Device:C C10
U 1 1 60086195
P 1200 6900
F 0 "C10" V 1350 7050 50  0000 C CNN
F 1 "20p" V 1250 7050 50  0000 C CNN
F 2 "Capacitor_SMD:C_0603_1608Metric" H 1238 6750 50  0001 C CNN
F 3 "~" H 1200 6900 50  0001 C CNN
F 4 " C1648" H 1200 6900 50  0001 C CNN "LCSC"
	1    1200 6900
	0    1    1    0   
$EndComp
$Comp
L power:GND #PWR0106
U 1 1 600863B4
P 950 7000
F 0 "#PWR0106" H 950 6750 50  0001 C CNN
F 1 "GND" H 955 6827 50  0000 C CNN
F 2 "" H 950 7000 50  0001 C CNN
F 3 "" H 950 7000 50  0001 C CNN
	1    950  7000
	1    0    0    -1  
$EndComp
Wire Wire Line
	950  7000 950  6900
Wire Wire Line
	950  6500 1050 6500
Wire Wire Line
	1050 6900 950  6900
Connection ~ 950  6900
Wire Wire Line
	950  6900 950  6500
Wire Wire Line
	1350 6500 1550 6500
Wire Wire Line
	1350 6900 1550 6900
Connection ~ 1550 6900
$Comp
L Device:C C9
U 1 1 6008A028
P 1200 6500
F 0 "C9" V 1350 6650 50  0000 C CNN
F 1 "20p" V 1250 6650 50  0000 C CNN
F 2 "Capacitor_SMD:C_0603_1608Metric" H 1238 6350 50  0001 C CNN
F 3 "~" H 1200 6500 50  0001 C CNN
F 4 " C1648" H 1200 6500 50  0001 C CNN "LCSC"
	1    1200 6500
	0    1    -1   0   
$EndComp
Text Label 7450 3700 0    50   ~ 0
TIM2_CH2
Wire Wire Line
	7450 3700 7350 3700
Text Label 7450 4200 0    50   ~ 0
TIM3_CH1
Wire Wire Line
	7450 4200 7350 4200
Text Label 5950 4200 2    50   ~ 0
TIM4_CH1
Wire Wire Line
	5950 4200 6050 4200
Text Label 7450 4400 0    50   ~ 0
TIM1_CH1
Wire Wire Line
	7450 4400 7350 4400
Wire Wire Line
	7450 4700 7350 4700
Text Label 7450 3800 0    50   ~ 0
TIM2_CH3
Wire Wire Line
	7450 3800 7350 3800
Text Label 9050 2100 2    50   ~ 0
TIM4_CH1
Text Label 9050 2300 2    50   ~ 0
TIM2_CH2
Text Label 9050 2500 2    50   ~ 0
TIM2_CH3
Text Label 9050 2900 2    50   ~ 0
TIM3_CH1
Text Label 9050 3100 2    50   ~ 0
TIM1_CH1
$Comp
L Device:R R4
U 1 1 600947DE
P 9400 2100
F 0 "R4" V 9350 1900 50  0000 C CNN
F 1 "100" V 9450 1900 50  0000 C CNN
F 2 "Resistor_SMD:R_0603_1608Metric" V 9330 2100 50  0001 C CNN
F 3 "~" H 9400 2100 50  0001 C CNN
F 4 "C22775" H 9400 2100 50  0001 C CNN "LCSC"
	1    9400 2100
	0    1    1    0   
$EndComp
Wire Wire Line
	9050 2100 9250 2100
Wire Wire Line
	9550 2100 9650 2100
$Comp
L power:+5V #PWR0107
U 1 1 600988DD
P 10100 2000
F 0 "#PWR0107" H 10100 1850 50  0001 C CNN
F 1 "+5V" H 10115 2173 50  0000 C CNN
F 2 "" H 10100 2000 50  0001 C CNN
F 3 "" H 10100 2000 50  0001 C CNN
	1    10100 2000
	1    0    0    -1  
$EndComp
Wire Wire Line
	9950 2100 10100 2100
Wire Wire Line
	10100 2100 10100 2000
$Comp
L Device:LED D1
U 1 1 60094DE7
P 9800 2100
F 0 "D1" H 9950 2150 50  0000 C CNN
F 1 "LED" H 9950 2050 50  0000 C CNN
F 2 "Diode_SMD:D_0603_1608Metric_Castellated" H 9800 2100 50  0001 C CNN
F 3 "~" H 9800 2100 50  0001 C CNN
F 4 "C2290" H 9800 2100 50  0001 C CNN "LCSC"
	1    9800 2100
	1    0    0    -1  
$EndComp
$Comp
L Device:LED D2
U 1 1 6009E454
P 9800 2300
F 0 "D2" H 9950 2350 50  0000 C CNN
F 1 "LED" H 9950 2250 50  0000 C CNN
F 2 "Diode_SMD:D_0603_1608Metric_Castellated" H 9800 2300 50  0001 C CNN
F 3 "~" H 9800 2300 50  0001 C CNN
F 4 "C2290" H 9800 2300 50  0001 C CNN "LCSC"
	1    9800 2300
	1    0    0    -1  
$EndComp
$Comp
L Device:R R5
U 1 1 6009E825
P 9400 2300
F 0 "R5" V 9350 2100 50  0000 C CNN
F 1 "100" V 9450 2100 50  0000 C CNN
F 2 "Resistor_SMD:R_0603_1608Metric" V 9330 2300 50  0001 C CNN
F 3 "~" H 9400 2300 50  0001 C CNN
F 4 "C22775" H 9400 2300 50  0001 C CNN "LCSC"
	1    9400 2300
	0    1    1    0   
$EndComp
$Comp
L Device:LED D3
U 1 1 6009FE8D
P 9800 2500
F 0 "D3" H 9950 2550 50  0000 C CNN
F 1 "LED" H 9950 2450 50  0000 C CNN
F 2 "Diode_SMD:D_0603_1608Metric_Castellated" H 9800 2500 50  0001 C CNN
F 3 "~" H 9800 2500 50  0001 C CNN
F 4 "C2290" H 9800 2500 50  0001 C CNN "LCSC"
	1    9800 2500
	1    0    0    -1  
$EndComp
$Comp
L Device:R R6
U 1 1 600A0067
P 9400 2500
F 0 "R6" V 9350 2300 50  0000 C CNN
F 1 "100" V 9450 2300 50  0000 C CNN
F 2 "Resistor_SMD:R_0603_1608Metric" V 9330 2500 50  0001 C CNN
F 3 "~" H 9400 2500 50  0001 C CNN
F 4 "C22775" H 9400 2500 50  0001 C CNN "LCSC"
	1    9400 2500
	0    1    1    0   
$EndComp
$Comp
L Device:R R7
U 1 1 600A19FC
P 9400 2700
F 0 "R7" V 9350 2500 50  0000 C CNN
F 1 "100" V 9450 2500 50  0000 C CNN
F 2 "Resistor_SMD:R_0603_1608Metric" V 9330 2700 50  0001 C CNN
F 3 "~" H 9400 2700 50  0001 C CNN
F 4 "C22775" H 9400 2700 50  0001 C CNN "LCSC"
	1    9400 2700
	0    1    1    0   
$EndComp
Wire Wire Line
	9050 2700 9250 2700
Wire Wire Line
	9550 2700 9650 2700
$Comp
L Device:LED D4
U 1 1 600A1BF8
P 9800 2700
F 0 "D4" H 9950 2750 50  0000 C CNN
F 1 "LED" H 9950 2650 50  0000 C CNN
F 2 "Diode_SMD:D_0603_1608Metric_Castellated" H 9800 2700 50  0001 C CNN
F 3 "~" H 9800 2700 50  0001 C CNN
F 4 "C2290" H 9800 2700 50  0001 C CNN "LCSC"
	1    9800 2700
	1    0    0    -1  
$EndComp
$Comp
L Device:LED D5
U 1 1 600A1C02
P 9800 2900
F 0 "D5" H 9950 2950 50  0000 C CNN
F 1 "LED" H 9950 2850 50  0000 C CNN
F 2 "Diode_SMD:D_0603_1608Metric_Castellated" H 9800 2900 50  0001 C CNN
F 3 "~" H 9800 2900 50  0001 C CNN
F 4 "C2290" H 9800 2900 50  0001 C CNN "LCSC"
	1    9800 2900
	1    0    0    -1  
$EndComp
$Comp
L Device:R R8
U 1 1 600A1C0C
P 9400 2900
F 0 "R8" V 9350 2700 50  0000 C CNN
F 1 "100" V 9450 2700 50  0000 C CNN
F 2 "Resistor_SMD:R_0603_1608Metric" V 9330 2900 50  0001 C CNN
F 3 "~" H 9400 2900 50  0001 C CNN
F 4 "C22775" H 9400 2900 50  0001 C CNN "LCSC"
	1    9400 2900
	0    1    1    0   
$EndComp
$Comp
L Device:LED D6
U 1 1 600A1C16
P 9800 3100
F 0 "D6" H 9950 3150 50  0000 C CNN
F 1 "LED" H 9950 3050 50  0000 C CNN
F 2 "Diode_SMD:D_0603_1608Metric_Castellated" H 9800 3100 50  0001 C CNN
F 3 "~" H 9800 3100 50  0001 C CNN
F 4 "C2290" H 9800 3100 50  0001 C CNN "LCSC"
	1    9800 3100
	1    0    0    -1  
$EndComp
$Comp
L Device:R R9
U 1 1 600A1C20
P 9400 3100
F 0 "R9" V 9350 2900 50  0000 C CNN
F 1 "100" V 9450 2900 50  0000 C CNN
F 2 "Resistor_SMD:R_0603_1608Metric" V 9330 3100 50  0001 C CNN
F 3 "~" H 9400 3100 50  0001 C CNN
F 4 "C22775" H 9400 3100 50  0001 C CNN "LCSC"
	1    9400 3100
	0    1    1    0   
$EndComp
Wire Wire Line
	9950 2300 10100 2300
Wire Wire Line
	10100 2300 10100 2100
Connection ~ 10100 2100
Wire Wire Line
	9950 2500 10100 2500
Wire Wire Line
	10100 2500 10100 2300
Connection ~ 10100 2300
Wire Wire Line
	9950 2700 10100 2700
Wire Wire Line
	10100 2700 10100 2500
Connection ~ 10100 2500
Wire Wire Line
	9950 2900 10100 2900
Wire Wire Line
	10100 2900 10100 2700
Connection ~ 10100 2700
Wire Wire Line
	9950 3100 10100 3100
Wire Wire Line
	10100 3100 10100 2900
Connection ~ 10100 2900
Wire Wire Line
	9550 3100 9650 3100
Wire Wire Line
	9550 2900 9650 2900
Wire Wire Line
	9550 2500 9650 2500
Wire Wire Line
	9550 2300 9650 2300
Wire Wire Line
	9250 2300 9050 2300
Wire Wire Line
	9050 2500 9250 2500
Wire Wire Line
	9250 2900 9050 2900
Wire Wire Line
	9050 3100 9250 3100
$Comp
L Connector:USB_B_Micro J1
U 1 1 600BCA41
P 1500 2300
F 0 "J1" H 1557 2767 50  0000 C CNN
F 1 "MIUSB-F5M-ABG-U" H 1557 2676 50  0000 C CNN
F 2 "tuna:MIUSB-F5M-ABG-U" H 1650 2250 50  0001 C CNN
F 3 "~" H 1650 2250 50  0001 C CNN
	1    1500 2300
	1    0    0    -1  
$EndComp
$Comp
L power:+5V #PWR0108
U 1 1 600BD8FF
P 1900 2000
F 0 "#PWR0108" H 1900 1850 50  0001 C CNN
F 1 "+5V" H 1915 2173 50  0000 C CNN
F 2 "" H 1900 2000 50  0001 C CNN
F 3 "" H 1900 2000 50  0001 C CNN
	1    1900 2000
	1    0    0    -1  
$EndComp
Wire Wire Line
	1800 2100 1900 2100
Wire Wire Line
	1900 2100 1900 2000
$Comp
L power:GND #PWR0109
U 1 1 600C0043
P 1450 2900
F 0 "#PWR0109" H 1450 2650 50  0001 C CNN
F 1 "GND" H 1455 2727 50  0000 C CNN
F 2 "" H 1450 2900 50  0001 C CNN
F 3 "" H 1450 2900 50  0001 C CNN
	1    1450 2900
	1    0    0    -1  
$EndComp
Wire Wire Line
	1400 2700 1400 2800
Wire Wire Line
	1400 2800 1450 2800
Wire Wire Line
	1500 2800 1500 2700
Wire Wire Line
	1450 2900 1450 2800
Connection ~ 1450 2800
Wire Wire Line
	1450 2800 1500 2800
Text Label 1900 2300 0    50   ~ 0
USB_P
Text Label 1900 2400 0    50   ~ 0
USB_N
NoConn ~ 1800 2500
Wire Wire Line
	1800 2300 2250 2300
$Comp
L Device:R R2
U 1 1 600CFFD9
P 2400 2400
F 0 "R2" V 2450 2550 50  0000 C CNN
F 1 "1k5" V 2400 2400 50  0000 C CNN
F 2 "Resistor_SMD:R_0603_1608Metric" V 2330 2400 50  0001 C CNN
F 3 "~" H 2400 2400 50  0001 C CNN
F 4 "C22843" H 2400 2400 50  0001 C CNN "LCSC"
	1    2400 2400
	0    1    1    0   
$EndComp
$Comp
L Device:R R1
U 1 1 600D05AA
P 2400 2300
F 0 "R1" V 2350 2450 50  0000 C CNN
F 1 "1k5" V 2400 2300 50  0000 C CNN
F 2 "Resistor_SMD:R_0603_1608Metric" V 2330 2300 50  0001 C CNN
F 3 "~" H 2400 2300 50  0001 C CNN
F 4 "C22843" H 2400 2300 50  0001 C CNN "LCSC"
	1    2400 2300
	0    1    1    0   
$EndComp
Wire Wire Line
	1800 2400 2250 2400
Text Label 2650 2300 0    50   ~ 0
USB_PULL_P
Text Label 2650 2400 0    50   ~ 0
USB_PULL_N
Wire Wire Line
	2650 2300 2550 2300
Wire Wire Line
	2550 2400 2650 2400
Text Label 7450 4800 0    50   ~ 0
USB_P
Text Label 7450 4700 0    50   ~ 0
USB_N
Text Label 5950 5100 2    50   ~ 0
USB_PULL_P
Text Label 5950 5000 2    50   ~ 0
USB_PULL_N
Wire Wire Line
	7450 4800 7350 4800
Text Label 7450 3900 0    50   ~ 0
TIM2_CH4
Wire Wire Line
	7350 3900 7450 3900
Text Label 9050 2700 2    50   ~ 0
TIM2_CH4
$Comp
L Regulator_Linear:XC6206PxxxMR U1
U 1 1 600E0B66
P 2550 3650
F 0 "U1" H 2550 3892 50  0000 C CNN
F 1 "XC6206P332MR" H 2550 3801 50  0000 C CNN
F 2 "Package_TO_SOT_SMD:SOT-23" H 2550 3875 50  0001 C CIN
F 3 "https://www.torexsemi.com/file/xc6206/XC6206.pdf" H 2550 3650 50  0001 C CNN
F 4 "C5446" H 2550 3650 50  0001 C CNN "LCSC"
	1    2550 3650
	1    0    0    -1  
$EndComp
$Comp
L Device:C C5
U 1 1 600E13CF
P 2050 3900
F 0 "C5" H 2100 4000 50  0000 L CNN
F 1 "1u" H 2100 3800 50  0000 L CNN
F 2 "Capacitor_SMD:C_0603_1608Metric" H 2088 3750 50  0001 C CNN
F 3 "~" H 2050 3900 50  0001 C CNN
F 4 "C15849" H 2050 3900 50  0001 C CNN "LCSC"
	1    2050 3900
	1    0    0    -1  
$EndComp
$Comp
L Device:C C3
U 1 1 600E14FF
P 1750 3900
F 0 "C3" H 1800 4000 50  0000 L CNN
F 1 "1u" H 1800 3800 50  0000 L CNN
F 2 "Capacitor_SMD:C_0603_1608Metric" H 1788 3750 50  0001 C CNN
F 3 "~" H 1750 3900 50  0001 C CNN
F 4 "C15849" H 1750 3900 50  0001 C CNN "LCSC"
	1    1750 3900
	1    0    0    -1  
$EndComp
$Comp
L Device:C C1
U 1 1 600E16C5
P 1450 3900
F 0 "C1" H 1500 4000 50  0000 L CNN
F 1 "1u" H 1500 3800 50  0000 L CNN
F 2 "Capacitor_SMD:C_0603_1608Metric" H 1488 3750 50  0001 C CNN
F 3 "~" H 1450 3900 50  0001 C CNN
F 4 "C15849" H 1450 3900 50  0001 C CNN "LCSC"
	1    1450 3900
	1    0    0    -1  
$EndComp
$Comp
L Device:C C8
U 1 1 600E1F27
P 2950 3900
F 0 "C8" H 3000 4000 50  0000 L CNN
F 1 "1u" H 3000 3800 50  0000 L CNN
F 2 "Capacitor_SMD:C_0603_1608Metric" H 2988 3750 50  0001 C CNN
F 3 "~" H 2950 3900 50  0001 C CNN
F 4 "C15849" H 2950 3900 50  0001 C CNN "LCSC"
	1    2950 3900
	1    0    0    -1  
$EndComp
Wire Wire Line
	2850 3650 2950 3650
Wire Wire Line
	2950 3650 2950 3750
$Comp
L power:+3.3V #PWR0110
U 1 1 600E535C
P 2950 3550
F 0 "#PWR0110" H 2950 3400 50  0001 C CNN
F 1 "+3.3V" H 2965 3723 50  0000 C CNN
F 2 "" H 2950 3550 50  0001 C CNN
F 3 "" H 2950 3550 50  0001 C CNN
	1    2950 3550
	1    0    0    -1  
$EndComp
Wire Wire Line
	2950 3550 2950 3650
Connection ~ 2950 3650
$Comp
L power:+5V #PWR0111
U 1 1 600EBA22
P 1450 3550
F 0 "#PWR0111" H 1450 3400 50  0001 C CNN
F 1 "+5V" H 1465 3723 50  0000 C CNN
F 2 "" H 1450 3550 50  0001 C CNN
F 3 "" H 1450 3550 50  0001 C CNN
	1    1450 3550
	1    0    0    -1  
$EndComp
Wire Wire Line
	1450 3550 1450 3650
Wire Wire Line
	1450 3650 1750 3650
Wire Wire Line
	1450 3650 1450 3750
Connection ~ 1450 3650
Wire Wire Line
	1750 3750 1750 3650
Connection ~ 1750 3650
Wire Wire Line
	1750 3650 2050 3650
Wire Wire Line
	2050 3750 2050 3650
Connection ~ 2050 3650
Wire Wire Line
	2050 3650 2250 3650
Wire Wire Line
	1450 4050 1450 4150
Wire Wire Line
	1450 4150 1750 4150
Wire Wire Line
	2950 4150 2950 4050
Wire Wire Line
	2050 4050 2050 4150
Connection ~ 2050 4150
Wire Wire Line
	2050 4150 2300 4150
Wire Wire Line
	1750 4050 1750 4150
Connection ~ 1750 4150
Wire Wire Line
	1750 4150 2050 4150
Wire Wire Line
	2550 3950 2550 4150
Connection ~ 2550 4150
Wire Wire Line
	2550 4150 2950 4150
$Comp
L power:GND #PWR0112
U 1 1 6010C8F5
P 2300 4250
F 0 "#PWR0112" H 2300 4000 50  0001 C CNN
F 1 "GND" H 2305 4077 50  0000 C CNN
F 2 "" H 2300 4250 50  0001 C CNN
F 3 "" H 2300 4250 50  0001 C CNN
	1    2300 4250
	1    0    0    -1  
$EndComp
Wire Wire Line
	2300 4250 2300 4150
Connection ~ 2300 4150
Wire Wire Line
	2300 4150 2550 4150
$Comp
L Switch:SW_Push SW2
U 1 1 6011EC43
P 4800 6600
F 0 "SW2" H 5100 6800 50  0000 C CNN
F 1 "SW_Push" H 5100 6700 50  0000 C CNN
F 2 "tuna:TS-1187A-B-A-B" H 4800 6800 50  0001 C CNN
F 3 "~" H 4800 6800 50  0001 C CNN
F 4 "C318884" H 4800 6600 50  0001 C CNN "LCSC"
	1    4800 6600
	1    0    0    -1  
$EndComp
$Comp
L Switch:SW_Push SW3
U 1 1 6011F8C8
P 4800 6350
F 0 "SW3" H 5100 6550 50  0000 C CNN
F 1 "SW_Push" H 5100 6450 50  0000 C CNN
F 2 "tuna:TS-1187A-B-A-B" H 4800 6550 50  0001 C CNN
F 3 "~" H 4800 6550 50  0001 C CNN
F 4 "C318884" H 4800 6350 50  0001 C CNN "LCSC"
	1    4800 6350
	1    0    0    -1  
$EndComp
$Comp
L Switch:SW_Push SW4
U 1 1 6011FA13
P 4800 6850
F 0 "SW4" H 5100 7050 50  0000 C CNN
F 1 "SW_Push" H 5100 6950 50  0000 C CNN
F 2 "tuna:TS-1187A-B-A-B" H 4800 7050 50  0001 C CNN
F 3 "~" H 4800 7050 50  0001 C CNN
F 4 "C318884" H 4800 6850 50  0001 C CNN "LCSC"
	1    4800 6850
	1    0    0    -1  
$EndComp
$Comp
L Switch:SW_Push SW1
U 1 1 6011FC39
P 3100 7000
F 0 "SW1" H 3400 7200 50  0000 C CNN
F 1 "SW_Push" H 3400 7100 50  0000 C CNN
F 2 "tuna:TS-1187A-B-A-B" H 3100 7200 50  0001 C CNN
F 3 "~" H 3100 7200 50  0001 C CNN
F 4 "C318884" H 3100 7000 50  0001 C CNN "LCSC"
	1    3100 7000
	1    0    0    -1  
$EndComp
Text Label 2750 7000 2    50   ~ 0
~RESET
$Comp
L power:GND #PWR0113
U 1 1 601209F6
P 3400 7100
F 0 "#PWR0113" H 3400 6850 50  0001 C CNN
F 1 "GND" H 3405 6927 50  0000 C CNN
F 2 "" H 3400 7100 50  0001 C CNN
F 3 "" H 3400 7100 50  0001 C CNN
	1    3400 7100
	1    0    0    -1  
$EndComp
Wire Wire Line
	3300 7000 3400 7000
Wire Wire Line
	3400 7000 3400 7100
Wire Wire Line
	2750 7000 2900 7000
$Comp
L power:GND #PWR0114
U 1 1 6012A57D
P 5300 6950
F 0 "#PWR0114" H 5300 6700 50  0001 C CNN
F 1 "GND" H 5305 6777 50  0000 C CNN
F 2 "" H 5300 6950 50  0001 C CNN
F 3 "" H 5300 6950 50  0001 C CNN
	1    5300 6950
	1    0    0    -1  
$EndComp
Wire Wire Line
	5000 6350 5300 6350
Wire Wire Line
	5300 6350 5300 6600
Wire Wire Line
	5000 6600 5300 6600
Connection ~ 5300 6600
Wire Wire Line
	5300 6600 5300 6850
Wire Wire Line
	5000 6850 5300 6850
Connection ~ 5300 6850
Wire Wire Line
	5300 6850 5300 6950
Text Label 4500 6350 2    50   ~ 0
BTN_1
Text Label 4500 6600 2    50   ~ 0
BTN_2
Text Label 4500 6850 2    50   ~ 0
BTN_3
Wire Wire Line
	4500 6350 4600 6350
Wire Wire Line
	4500 6850 4600 6850
Wire Wire Line
	4500 6600 4600 6600
Text Label 5950 4500 2    50   ~ 0
BTN_1
Text Label 5950 4900 2    50   ~ 0
BTN_2
Text Label 7450 5100 0    50   ~ 0
BTN_3
$Comp
L Connector:Conn_01x05_Male J2
U 1 1 6015A4A7
P 10050 4350
F 0 "J2" H 10022 4282 50  0000 R CNN
F 1 "Conn_01x05_Male" H 10022 4373 50  0000 R CNN
F 2 "Connector_PinHeader_2.54mm:PinHeader_1x05_P2.54mm_Vertical" H 10050 4350 50  0001 C CNN
F 3 "~" H 10050 4350 50  0001 C CNN
	1    10050 4350
	-1   0    0    1   
$EndComp
$Comp
L power:GND #PWR0115
U 1 1 6016A2C0
P 9750 4650
F 0 "#PWR0115" H 9750 4400 50  0001 C CNN
F 1 "GND" H 9755 4477 50  0000 C CNN
F 2 "" H 9750 4650 50  0001 C CNN
F 3 "" H 9750 4650 50  0001 C CNN
	1    9750 4650
	1    0    0    -1  
$EndComp
Wire Wire Line
	9750 4650 9750 4550
Wire Wire Line
	9750 4550 9850 4550
$Comp
L power:+3.3V #PWR0116
U 1 1 6016FF66
P 9750 4050
F 0 "#PWR0116" H 9750 3900 50  0001 C CNN
F 1 "+3.3V" H 9765 4223 50  0000 C CNN
F 2 "" H 9750 4050 50  0001 C CNN
F 3 "" H 9750 4050 50  0001 C CNN
	1    9750 4050
	1    0    0    -1  
$EndComp
Wire Wire Line
	9750 4050 9750 4150
Wire Wire Line
	9750 4150 9850 4150
Text Label 9750 4250 2    50   ~ 0
~RESET
Text Label 9750 4350 2    50   ~ 0
SWDIO
Text Label 9750 4450 2    50   ~ 0
SWCLK
Wire Wire Line
	9750 4250 9850 4250
Wire Wire Line
	9750 4350 9850 4350
Wire Wire Line
	9750 4450 9850 4450
$Comp
L power:GND #PWR0117
U 1 1 601888D6
P 9750 5850
F 0 "#PWR0117" H 9750 5600 50  0001 C CNN
F 1 "GND" H 9755 5677 50  0000 C CNN
F 2 "" H 9750 5850 50  0001 C CNN
F 3 "" H 9750 5850 50  0001 C CNN
	1    9750 5850
	1    0    0    -1  
$EndComp
Wire Wire Line
	9750 5850 9750 5750
Wire Wire Line
	9750 5750 9850 5750
$Comp
L power:+3.3V #PWR0118
U 1 1 6018EAFC
P 9750 5250
F 0 "#PWR0118" H 9750 5100 50  0001 C CNN
F 1 "+3.3V" H 9765 5423 50  0000 C CNN
F 2 "" H 9750 5250 50  0001 C CNN
F 3 "" H 9750 5250 50  0001 C CNN
	1    9750 5250
	1    0    0    -1  
$EndComp
Wire Wire Line
	9750 5250 9750 5350
Wire Wire Line
	9750 5350 9850 5350
Text Label 9750 5650 2    50   ~ 0
UART_TX
Text Label 9750 5550 2    50   ~ 0
UART_RX
Wire Wire Line
	9750 5650 9850 5650
Wire Wire Line
	9750 5550 9850 5550
Wire Wire Line
	5950 5000 6050 5000
Wire Wire Line
	5950 5100 6050 5100
Wire Wire Line
	5950 4900 6050 4900
Wire Wire Line
	5950 4500 6050 4500
$Comp
L Connector:Conn_01x05_Male J3
U 1 1 6007256C
P 10050 5550
F 0 "J3" H 10022 5482 50  0000 R CNN
F 1 "Conn_01x05_Male" H 10022 5573 50  0000 R CNN
F 2 "Connector_PinHeader_2.54mm:PinHeader_1x05_P2.54mm_Vertical" H 10050 5550 50  0001 C CNN
F 3 "~" H 10050 5550 50  0001 C CNN
	1    10050 5550
	-1   0    0    1   
$EndComp
Wire Wire Line
	9750 5450 9850 5450
Wire Wire Line
	7450 5100 7350 5100
Text Label 5950 3800 2    50   ~ 0
BOOT1
Text Label 5950 2700 2    50   ~ 0
BOOT0
Text Label 9750 5450 2    50   ~ 0
BOOT0
$Comp
L Device:R R12
U 1 1 601E9C86
P 5450 3800
F 0 "R12" V 5400 3900 50  0000 L CNN
F 1 "10k" V 5450 3800 50  0000 C CNN
F 2 "Resistor_SMD:R_0603_1608Metric" V 5380 3800 50  0001 C CNN
F 3 "~" H 5450 3800 50  0001 C CNN
F 4 "C25804" H 5450 3800 50  0001 C CNN "LCSC"
	1    5450 3800
	0    1    1    0   
$EndComp
Wire Wire Line
	5600 3800 6050 3800
$Comp
L power:GND #PWR0119
U 1 1 601F19DC
P 5250 3800
F 0 "#PWR0119" H 5250 3550 50  0001 C CNN
F 1 "GND" V 5250 3600 50  0000 C CNN
F 2 "" H 5250 3800 50  0001 C CNN
F 3 "" H 5250 3800 50  0001 C CNN
	1    5250 3800
	0    1    1    0   
$EndComp
Wire Wire Line
	5250 3800 5300 3800
Wire Wire Line
	1550 6900 1750 6900
$Comp
L Device:R R11
U 1 1 60224D82
P 5450 2700
F 0 "R11" V 5400 2800 50  0000 L CNN
F 1 "10k" V 5450 2700 50  0000 C CNN
F 2 "Resistor_SMD:R_0603_1608Metric" V 5380 2700 50  0001 C CNN
F 3 "~" H 5450 2700 50  0001 C CNN
F 4 "C25804" H 5450 2700 50  0001 C CNN "LCSC"
	1    5450 2700
	0    1    1    0   
$EndComp
Wire Wire Line
	5600 2700 6050 2700
$Comp
L power:GND #PWR0120
U 1 1 6022C4C5
P 5250 2700
F 0 "#PWR0120" H 5250 2450 50  0001 C CNN
F 1 "GND" V 5250 2500 50  0000 C CNN
F 2 "" H 5250 2700 50  0001 C CNN
F 3 "" H 5250 2700 50  0001 C CNN
	1    5250 2700
	0    1    1    0   
$EndComp
Wire Wire Line
	5250 2700 5300 2700
$Comp
L Device:R R3
U 1 1 60233CC2
P 5450 2500
F 0 "R3" V 5400 2600 50  0000 L CNN
F 1 "10k" V 5450 2500 50  0000 C CNN
F 2 "Resistor_SMD:R_0603_1608Metric" V 5380 2500 50  0001 C CNN
F 3 "~" H 5450 2500 50  0001 C CNN
F 4 "C25804" H 5450 2500 50  0001 C CNN "LCSC"
	1    5450 2500
	0    1    1    0   
$EndComp
Wire Wire Line
	5600 2500 6050 2500
Wire Wire Line
	5250 2500 5300 2500
Text Label 1750 6500 0    50   ~ 0
XTAL1
Text Label 5950 3000 2    50   ~ 0
XTAL2
Text Label 1750 6900 0    50   ~ 0
XTAL2
Text Label 5950 2900 2    50   ~ 0
XTAL1
Wire Wire Line
	5950 2900 6050 2900
Wire Wire Line
	6050 3000 5950 3000
Wire Wire Line
	1550 6500 1750 6500
Connection ~ 1550 6500
$Comp
L Device:R R10
U 1 1 60299BC8
P 3150 6450
F 0 "R10" V 3050 6450 50  0000 C CNN
F 1 "1k5" V 3150 6450 50  0000 C CNN
F 2 "Resistor_SMD:R_0603_1608Metric" V 3080 6450 50  0001 C CNN
F 3 "~" H 3150 6450 50  0001 C CNN
F 4 "C22843" H 3150 6450 50  0001 C CNN "LCSC"
	1    3150 6450
	0    1    1    0   
$EndComp
Text Label 5950 3200 2    50   ~ 0
BOARD_LED
Wire Wire Line
	5950 3200 6050 3200
Text Label 2900 6450 2    50   ~ 0
BOARD_LED
$Comp
L Device:LED D7
U 1 1 602A9AE2
P 3400 6200
F 0 "D7" H 3550 6250 50  0000 C CNN
F 1 "LED" H 3550 6150 50  0000 C CNN
F 2 "Diode_SMD:D_0603_1608Metric_Castellated" H 3400 6200 50  0001 C CNN
F 3 "~" H 3400 6200 50  0001 C CNN
F 4 "C2290" H 3400 6200 50  0001 C CNN "LCSC"
	1    3400 6200
	0    -1   -1   0   
$EndComp
$Comp
L power:+5V #PWR0121
U 1 1 602AA0F3
P 3400 5950
F 0 "#PWR0121" H 3400 5800 50  0001 C CNN
F 1 "+5V" H 3415 6123 50  0000 C CNN
F 2 "" H 3400 5950 50  0001 C CNN
F 3 "" H 3400 5950 50  0001 C CNN
	1    3400 5950
	1    0    0    -1  
$EndComp
Wire Wire Line
	2900 6450 3000 6450
Wire Wire Line
	3300 6450 3400 6450
Wire Wire Line
	3400 6450 3400 6350
Wire Wire Line
	3400 5950 3400 6050
NoConn ~ 6050 3300
NoConn ~ 6050 3400
NoConn ~ 6050 3600
NoConn ~ 6050 3700
NoConn ~ 6050 3900
NoConn ~ 6050 4000
NoConn ~ 6050 4100
NoConn ~ 6050 4300
NoConn ~ 6050 4400
NoConn ~ 6050 4600
NoConn ~ 6050 4700
NoConn ~ 6050 4800
NoConn ~ 7350 4300
NoConn ~ 7350 4100
NoConn ~ 7350 4000
NoConn ~ 7350 3600
Text Notes 10200 2100 0    50   ~ 0
E2 - 82.41Hz
Text Notes 10200 2300 0    50   ~ 0
A2 - 110.00Hz
Text Notes 10200 2500 0    50   ~ 0
D3 - 146.83Hz
Text Notes 10200 2700 0    50   ~ 0
G3 - 196.00Hz
Text Notes 10200 2900 0    50   ~ 0
H3 - 246.94Hz
Text Notes 10200 3100 0    50   ~ 0
E4 - 329.63Hz
$EndSCHEMATC
