(module TS-1187A-B-A-B (layer F.Cu) (tedit 6002D96E)
  (attr smd)
  (fp_text reference REF** (at 0 3.5) (layer F.SilkS)
    (effects (font (size 1 1) (thickness 0.15)))
  )
  (fp_text value TS-1187A-B-A-B (at 0 -3.8) (layer F.Fab)
    (effects (font (size 1 1) (thickness 0.15)))
  )
  (fp_text user %R (at 0 0) (layer F.Fab)
    (effects (font (size 1 1) (thickness 0.15)))
  )
  (fp_line (start -2.6 -2.4) (end -2.6 -2.6) (layer F.SilkS) (width 0.12))
  (fp_line (start -2.6 -2.6) (end 2.6 -2.6) (layer F.SilkS) (width 0.12))
  (fp_line (start 2.6 -2.6) (end 2.6 -2.4) (layer F.SilkS) (width 0.12))
  (fp_line (start -2.6 2.4) (end -2.6 2.6) (layer F.SilkS) (width 0.12))
  (fp_line (start -2.6 2.6) (end 2.6 2.6) (layer F.SilkS) (width 0.12))
  (fp_line (start 2.6 2.6) (end 2.6 2.4) (layer F.SilkS) (width 0.12))
  (fp_line (start -2.6 1.4) (end -2.6 -1.4) (layer F.SilkS) (width 0.12))
  (fp_line (start 2.6 1.4) (end 2.6 -1.4) (layer F.SilkS) (width 0.12))
  (fp_line (start -3.7 -2.8) (end 3.7 -2.8) (layer F.CrtYd) (width 0.05))
  (fp_line (start 3.7 -2.8) (end 3.7 2.8) (layer F.CrtYd) (width 0.05))
  (fp_line (start 3.7 2.8) (end -3.7 2.8) (layer F.CrtYd) (width 0.05))
  (fp_line (start -3.7 2.8) (end -3.7 -2.8) (layer F.CrtYd) (width 0.05))
  (pad 2 smd roundrect (at 3 1.875) (size 1 0.75) (layers F.Cu F.Paste F.Mask) (roundrect_rratio 0.25))
  (pad 1 smd roundrect (at 3 -1.875) (size 1 0.75) (layers F.Cu F.Paste F.Mask) (roundrect_rratio 0.25))
  (pad 1 smd roundrect (at -3 -1.875) (size 1 0.75) (layers F.Cu F.Paste F.Mask) (roundrect_rratio 0.25))
  (pad 2 smd roundrect (at -3 1.875) (size 1 0.75) (layers F.Cu F.Paste F.Mask) (roundrect_rratio 0.25))
)
